$GPGGA,064036.289,4836.5375,N,00740.9373,E,1,04,3.2,200.2,M,,,,0000*0E
$GPGGA,145702.00,5043.67370,N,00232.08226,E,1,07,1.19,28.9,M,45.8,M,,*67
$GPGGA,145705.00,5043.66884,N,00232.09359,E,1,08,1.08,28.7,M,45.8,M,,*68
$GPGGA,145707.00,5043.66891,N,00232.10262,E,1,07,1.19,28.4,M,45.8,M,,*63
$GPGGA,145708.00,5043.67037,N,00232.10588,E,1,07,1.19,28.1,M,45.8,M,,*6F
$GPGSV,3,1,11,05,32,192,33,07,04,068,06,08,07,020,25,13,87,344,32*7B
$GPGEA,140010.00,5043.67452,N,00232.10765,E,1,07,1.19,28.1,M,45.8,M,,*88
$GPGGA,145711.00,5043.67640,N,00232.10576,E,1,08,1.06,28.5,M,45.8,M,,*65
